<?xml version="1.0" standalone="no"?>
<!DOCTYPE svg PUBLIC "-//W3C//DTD SVG 1.1//EN" "http://www.w3.org/Graphics/SVG/1.1/DTD/svg11.dtd">
<svg xmlns="http://www.w3.org/2000/svg"><defs><font id="flaticon" horiz-adv-x="512"><font-face units-per-em="512" ascent="448" descent="-64" x-height="240" cap-height="480"/><missing-glyph horiz-adv-x="512"/><glyph unicode="&#xE000;" glyph-name="arrow395" horiz-adv-x="512" d="M363.704 -28.632L136.528 192.008L363.704 412.632L375.472 400.52L160.792 192.008L375.472 -16.512Z"/><glyph unicode="&#xE001;" glyph-name="arrow414" horiz-adv-x="512" d="M44.336 70.72L32.032 82.672L256.008 313.28L479.968 82.672L467.688 70.72L256.008 288.672ZM256.008 313.28L32.032 82.672L44.336 70.72L256.008 288.672L467.688 70.72L479.968 82.672Z"/><glyph unicode="&#xE002;" glyph-name="arrow483" horiz-adv-x="512" d="M256 83.06688c-6.85056 0 -13.70112 2.61632 -18.92352 7.8336l-164.34688 164.352c-10.45504 10.45504 -10.45504 27.40224 0 37.85216 c10.44992 10.44992 27.39712 10.44992 37.85216 0L256 147.68128l145.41824 145.41824c10.45504 10.44992 27.40224 10.44992 37.85216 0c10.45504 -10.44992 10.45504 -27.39712 0 -37.85216 l-164.34688 -164.352C269.70112 85.67808 262.85056 83.06688 256 83.06688z"/><glyph unicode="&#xE003;" glyph-name="arrow487" horiz-adv-x="512" d="M357.09952 173.07648l-164.352 -164.34688c-10.45504 -10.45504 -27.40224 -10.45504 -37.85216 0c-10.44992 10.44992 -10.44992 27.40224 0 37.85216L300.31872 192L154.90048 337.41824 c-10.44992 10.45504 -10.44992 27.40224 0 37.85216c10.44992 10.45504 27.39712 10.45504 37.85216 0l164.352 -164.34688c5.2224 -5.22752 7.8336 -12.07296 7.8336 -18.92352 S362.32192 178.29888 357.09952 173.07648z"/><glyph unicode="&#xE004;" glyph-name="arrowhead7" horiz-adv-x="512" d="M147.06688 192c0 6.85056 2.61632 13.70112 7.8336 18.92352l164.352 164.34688c10.45504 10.45504 27.40224 10.45504 37.85216 0c10.44992 -10.44992 10.44992 -27.39712 0 -37.85216 L211.68128 192l145.41824 -145.41824c10.44992 -10.44992 10.44992 -27.40224 0 -37.85216c-10.44992 -10.45504 -27.39712 -10.45504 -37.85216 0l-164.352 164.34688 C149.67808 178.29888 147.06688 185.14944 147.06688 192z"/><glyph unicode="&#xE005;" glyph-name="bottom4" horiz-adv-x="512" d="M256.008 69.984L30.664 302L43.04 314.016L256.008 94.736L468.984 314.016L481.336 302Z"/><glyph unicode="&#xE006;" glyph-name="close13" horiz-adv-x="717" d="M358.4 89.6L269.7216 167.2192L16.1792 -50.1248C25.3952 -58.6752 37.8368 -64 51.5584 -64h613.6832c13.6704 0 26.0608 5.3248 35.2256 13.8752L447.0784 167.2192L358.4 89.6zM700.6208 434.1248C691.4048 442.7264 679.0144 448 665.2416 448H51.5584C37.888 448 25.4976 442.6752 16.2816 434.0224L358.4 140.8L700.6208 434.1248zM0 403.0464L0 -22.3232L247.4496 187.9552ZM469.3504 187.9552L716.8 -22.3232L716.8 403.2Z"/><glyph unicode="&#xE007;" glyph-name="cross37" horiz-adv-x="512" d="M506.92 427.288L491.304 442.928L256 207.64L20.712 442.928L5.08 427.288L240.368 192L5.08 -43.288L20.712 -58.936L256 176.384L491.304 -58.936L506.92 -43.288L271.632 192Z"/><glyph unicode="&#xE008;" glyph-name="delete30" horiz-adv-x="512" d="M393.3696 281.28768L304.08704 192L393.3696 102.71232c13.28128 -13.28128 13.28128 -34.80576 0 -48.08704 c-6.63552 -6.63552 -15.3344 -9.9584 -24.03328 -9.9584c-8.704 0 -17.40288 3.31776 -24.0384 9.9584L256 143.91808l-89.2928 -89.2928 c-6.63552 -6.63552 -15.3344 -9.9584 -24.0384 -9.9584c-8.69888 0 -17.39264 3.31776 -24.03328 9.9584c-13.28128 13.27616 -13.28128 34.80064 0 48.08704L207.91296 192L118.6304 281.28768 c-13.28128 13.28128 -13.28128 34.80576 0 48.08704c13.27616 13.27104 34.7904 13.27104 48.07168 0L256 240.08192l89.2928 89.2928c13.28128 13.27104 34.79552 13.27104 48.07168 0 C406.65088 316.09344 406.65088 294.56896 393.3696 281.28768z"/><glyph unicode="&#xE009;" glyph-name="facebook5" horiz-adv-x="257" d="M55.763473442708 349.19492662655c0 3.1915501493442 0.44327085407558 10.084411930219 1.3298125622267 20.634258257218C58.046318341197 380.40119475347 62.035756027878 391.46080256266 69.194580321198 403.07449893944c7.0923336652093 11.569369291373 18.595212328471 21.964070819445 34.597290160599 31.161941041513 C119.72745768581 443.38998311761 142.75537855504 448 172.80914246137 448h84.664733128436v-92.266828275832H195.48244664733c-6.1393013289468 0 -11.857495346522 -2.305008441193 -17.021600796502 -6.8485346954677c-5.119778364573 -4.5435262542747 -7.7572399463227 -8.8654170815116 -7.7572399463227 -12.877018310896v-57.403575602788h86.748106142591 c-0.90870525085494 -11.236916150816 -1.906064672525 -22.163542703779 -3.0585688931215 -32.713389030778l-3.4353491190858 -27.881736721354c-1.3741396476343 -9.4195056491061 -2.7704428379724 -18.151941474395 -4.1445824856067 -26.197307475867H170.0830267088v-255.81160988702H55.763473442708V191.83377342972H0V278.60404311502h55.763473442708 V349.19492662655z"/><glyph unicode="&#xE00A;" glyph-name="google10" horiz-adv-x="521" d="M27.659636363636 320.33163636364c0 -43.450181818182 14.510545454545 -74.816 43.124363636364 -93.248c23.418181818182 -15.092363636364 50.624 -17.344 64.750545454545 -17.344c3.4327272727273 0 6.1789090909091 0.128 8.1047272727273 0.256 c0 0 -4.4858181818182 -29.184 17.157818181818 -58.071272727273l-0.97745454545455 0.011636363636364C122.31563636364 151.92436363636 0 144.09309090909 0 43.537454545455c0 -102.31272727273 112.34327272727 -107.50836363636 134.87709090909 -107.50836363636 c1.7629090909091 0 2.7927272727273 0.034909090909091 2.7927272727273 0.034909090909091C137.92 -63.936 139.53163636364 -64 142.272 -64c14.464 0 51.851636363636 1.8152727272727 86.568727272727 18.693818181818 C273.87345454545 -23.441454545455 296.72727272727 14.580363636364 296.72727272727 67.712c0 51.345454545455 -34.804363636364 81.902545454545 -60.218181818182 104.23854545455c-15.511272727273 13.602909090909 -28.910545454545 25.355636363636 -28.910545454545 36.782545454545 c0 11.642181818182 9.7861818181818 20.392727272727 22.161454545455 31.476363636364c20.043636363636 17.925818181818 38.929454545455 43.438545454545 38.929454545455 91.665454545455c0 42.397090909091 -5.4981818181818 70.853818181818 -39.365818181818 88.907636363636 c3.5316363636364 1.8094545454545 16.011636363636 3.1243636363636 22.190545454545 3.9796363636364C269.87636363636 427.26981818182 296.72727272727 430.11490909091 296.72727272727 445.10254545455V448H162.944C161.6 447.96509090909 27.659636363636 443.00218181818 27.659636363636 320.33163636364zM243.61309090909 58.141090909091c2.5541818181818 -40.919272727273 -32.442181818182 -71.109818181818 -84.986181818182 -74.932363636364c-53.376 -3.8981818181818 -97.320727272727 20.130909090909 -99.874909090909 60.992 c-1.2392727272727 19.630545454545 7.3949090909091 38.888727272727 24.296727272727 54.202181818182c17.146181818182 15.528727272727 40.680727272727 25.099636363636 66.286545454545 26.990545454545c3.0254545454545 0.192 6.0218181818182 0.31418181818182 9.0123636363636 0.31418181818182 C207.73818181818 125.70763636364 241.19272727273 96.674909090909 243.61309090909 58.141090909091zM208.68072727273 348.32872727273c13.125818181818 -46.161454545455 -6.6909090909091 -94.423272727273 -38.272 -103.32509090909 c-3.6247272727273 -1.0181818181818 -7.3890909090909 -1.5418181818182 -11.182545454545 -1.5418181818182c-28.933818181818 0 -57.6 29.271272727273 -68.218181818182 69.585454545455c-5.9345454545455 22.656 -5.4574545454545 42.449454545455 1.3498181818182 61.486545454545 c6.6909090909091 18.728727272727 18.705454545455 31.377454545455 33.826909090909 35.630545454545c3.6363636363636 1.0298181818182 7.4065454545455 1.5534545454545 11.194181818182 1.5534545454545C172.31709090909 411.72363636364 194.77527272727 397.23636363636 208.68072727273 348.32872727273zM434.08872727273 247.79636363636 v87.272727272727h-55.272727272727v-87.272727272727h-87.272727272727v-55.272727272727h87.272727272727v-87.272727272727h55.272727272727v87.272727272727h87.272727272727v55.272727272727H434.08872727273z"/><glyph unicode="&#xE00B;" glyph-name="instagram" horiz-adv-x="512" d="M447.44513488372 448H64.564390697674C28.910139534884 448 0 419.08986046512 0 383.44513488372v-382.87121860465c0 -35.654251162791 28.910139534884 -64.564390697674 64.564390697674 -64.564390697674h382.88074418605c35.6352 0 64.545339534884 28.910139534884 64.545339534884 64.564390697674 V383.44513488372C512 419.08986046512 483.08986046512 448 447.44513488372 448zM256 267.01395348837c41.3696 0 75.013953488372 -33.653879069767 75.013953488372 -75.013953488372c0 -41.3696 -33.644353488372 -75.013953488372 -75.013953488372 -75.013953488372 c-41.360074418605 0 -75.013953488372 33.644353488372 -75.013953488372 75.013953488372C180.98604651163 233.3600744186 214.6399255814 267.01395348837 256 267.01395348837zM452.46511627907 27.855181395349c0 -17.822362790698 -16.584037209302 -32.320297674419 -34.415925581395 -32.320297674419H95.208186046512 c-17.841413953488 0 -35.673302325581 14.488409302326 -35.673302325581 32.320297674419V189.27568372093c0 17.822362790698 17.831888372093 32.491758139535 35.673302325581 32.491758139535h17.993823255814c3.3911069767442 0 6.6202790697674 -1.4669395348837 8.8683162790698 -4.0102697674419 c2.238511627907 -2.5528558139535 3.2863255813953 -5.953488372093 2.8481488372093 -9.3160186046512C124.21358139535 203.0592 123.83255813953 197.57246511628 123.83255813953 192c0 -72.870697674419 59.287218604651 -132.16744186047 132.16744186047 -132.16744186047 c72.870697674419 0 132.16744186047 59.296744186047 132.16744186047 132.16744186047c0 5.5724651162791 -0.38102325581395 11.0592 -1.0763906976744 16.441153488372c-0.4477023255814 3.3720558139535 0.59058604651163 6.7631627906977 2.8290976744186 9.3255441860465 c2.2480372093023 2.5528558139535 5.4772093023256 4.0102697674419 8.8873674418605 4.0102697674419h19.2512c17.831888372093 0 34.415925581395 -14.669395348837 34.415925581395 -32.50128372093V27.855181395349zM452.47464186047 325.50102325581L452.47464186047 325.50102325581 c-0.0095255813953488 -17.831888372093 -14.469358139535 -32.291720930233 -32.291720930233 -32.291720930233h-30.681897674419c-17.841413953488 0 -32.301246511628 14.45983255814 -32.301246511628 32.291720930233V356.18292093023c0 17.822362790698 14.45983255814 32.282195348837 32.301246511628 32.282195348837h30.681897674419 c17.822362790698 0 32.291720930233 -14.45983255814 32.291720930233 -32.282195348837V325.50102325581z"/><glyph unicode="&#xE00C;" glyph-name="little26" horiz-adv-x="512" d="M478.752 406.112c-1.632 3.904 -4.736 7.04 -8.64 8.64L464 416h-128C327.2 416 320 408.832 320 400S327.2 384 336 384h89.376L292.672 251.328 c-6.24 -6.24 -6.24 -16.384 0 -22.624c6.208 -6.24 16.384 -6.24 22.624 0L448 361.376V272C448 263.168 455.2 256 464 256S480 263.168 480 272v128 L478.752 406.112zM196.672 155.328L64 22.624V112C64 120.8 56.832 128 48 128S32 120.8 32 112v-128.064l1.216 -6.048l3.328 -4.992l0.128 -0.192 l0.128 -0.128l5.056 -3.328L48 -32h128C184.832 -32 192 -24.8 192 -16S184.832 0 176 0H86.624l132.672 132.672c6.24 6.208 6.24 16.384 0 22.624 C213.056 161.536 202.912 161.536 196.672 155.328z"/><glyph unicode="&#xE00D;" glyph-name="male18" horiz-adv-x="512" d="M393.376768 152.567808c-57.549824 18.797568 -81.472512 42.17344 -81.472512 42.17344l-1.926144 -1.836032c-17.09056 -16.086016 -35.992576 -25.542656 -53.21216 -25.542656 h-1.625088c-17.21856 0 -36.120576 9.45664 -53.211136 25.542656l-1.927168 1.836032c0 0 -23.92064 -23.374848 -81.471488 -42.17344 C33.575936 120.832 59.0848 -8.322048 59.060224 -9.322496c2.675712 -14.384128 4.235264 -19.328 5.594112 -19.883008c85.313536 -37.981184 297.286656 -37.981184 382.601216 0 c1.358848 0.555008 2.9184 5.49888 5.594112 19.883008C452.825088 -8.322048 478.674944 120.318976 393.376768 152.567808zM345.17504 317.335552l-0.712704 0.77312c-4.780032 4.376576 -4.406272 4.125696 -4.406272 4.125696s8.337408 42.068992 1.651712 61.963264 c-10.496 31.771648 -73.1904 53.065728 -85.76512 55.540736c0.002048 0.023552 -7.648256 1.554432 -8.136704 1.557504c0 0 -9.890816 1.999872 -21.354496 -3.00032 c-7.465984 -2.87232 -46.497792 -20.57216 -57.576448 -54.09792c-6.684672 -19.894272 1.652736 -61.963264 1.652736 -61.963264s0.37376 0.25088 -4.407296 -4.125696l-0.71168 -0.77312 c-3.233792 -3.672064 -2.435072 -15.161344 1.099776 -27.114496c3.203072 -11.97568 7.37792 -15.194112 8.378368 -17.998848c10.140672 -47.612928 45.402112 -88.265728 81.335296 -88.265728 s69.331968 40.6528 79.47264 88.265728c1.001472 2.803712 5.17632 6.023168 8.379392 17.998848C347.609088 302.175232 348.500992 314.452992 345.17504 317.335552z"/><glyph unicode="&#xE00E;" glyph-name="menu6" horiz-adv-x="455" d="M35.015804878049 321.09892682927h385.09892682927c19.256195121951 0 35.015804878049 15.734634146341 35.015804878049 34.990829268293h-0.024975609756098V412.98419512195C455.10556097561 432.2403902439 439.34595121951 448 420.08975609756 448H35.015804878049 C15.759609756098 448 0 432.2403902439 0 412.98419512195V356.08975609756C0 336.83356097561 15.759609756098 321.09892682927 35.015804878049 321.09892682927zM455.10556097561 27.910243902439c0 19.256195121951 -15.759609756098 34.990829268293 -35.015804878049 34.990829268293H35.015804878049C15.759609756098 62.901073170732 0 47.16643902439 0 27.910243902439v-56.869463414634C0 -48.240390243902 15.759609756098 -64 35.015804878049 -64 h385.09892682927c19.256195121951 0 35.015804878049 15.759609756098 35.015804878049 35.015804878049h-0.024975609756098V27.910243902439zM455.10556097561 220.4472195122c0 19.256195121951 -15.759609756098 35.015804878049 -35.015804878049 35.015804878049H35.015804878049C15.759609756098 255.46302439024 0 239.70341463415 0 220.4472195122v-56.89443902439c0 -19.256195121951 15.759609756098 -35.015804878049 34.990829268293 -35.015804878049 h385.09892682927c19.256195121951 0 35.015804878049 15.759609756098 35.015804878049 35.015804878049h-0.024975609756098V220.4472195122z"/><glyph unicode="&#xE00F;" glyph-name="move13" horiz-adv-x="512" d="M134.112 -57.704L120.8 -43.984L363.784 191.992L120.8 428.008L134.112 441.704L391.2 191.992Z"/><glyph unicode="&#xE010;" glyph-name="navigate6" horiz-adv-x="512" d="M274.92352 293.09952l164.34688 -164.352c10.45504 -10.45504 10.45504 -27.40224 0 -37.85216c-10.44992 -10.44992 -27.40224 -10.44992 -37.85216 0L256 236.31872L110.58176 90.90048 c-10.45504 -10.44992 -27.40224 -10.44992 -37.85216 0c-10.45504 10.44992 -10.45504 27.39712 0 37.85216l164.34688 164.352c5.22752 5.2224 12.07296 7.8336 18.92352 7.8336 S269.70112 298.32192 274.92352 293.09952z"/><glyph unicode="&#xE011;" glyph-name="play11" horiz-adv-x="512" d="M256 448C114.624 448 0 333.376 0 192s114.624 -256 256 -256s256 114.624 256 256S397.376 448 256 448zM160 64V320l224 -128L160 64z"/><glyph unicode="&#xE012;" glyph-name="quote2" horiz-adv-x="757" d="M305.5938630137 210.28471232877h-64c-7.6203835616438 0 -14.097534246575 2.6652054794521 -19.431452054795 7.9991232876712c-5.3304109589041 5.3339178082192 -7.9991232876712 11.811068493151 -7.9991232876712 19.431452054795v9.1388493150685 c0 20.192438356164 7.1434520547945 37.428602739726 21.430356164384 51.715506849315c14.286904109589 14.283397260274 31.526575342466 21.426849315068 51.715506849315 21.426849315068h18.284712328767c4.9516712328767 0 9.2370410958904 1.8095342465753 12.856109589041 5.428602739726 c3.6190684931507 3.6190684931507 5.428602739726 7.9044383561644 5.428602739726 12.856109589041V374.8541369863c0 4.9516712328767 -1.8095342465753 9.2405479452055 -5.428602739726 12.859616438356c-3.6190684931507 3.6155616438356 -7.9044383561644 5.428602739726 -12.856109589041 5.428602739726h-18.284712328767 c-19.810191780822 0 -38.712109589041 -3.8610410958904 -56.712767123288 -11.572602739726c-18.000657534247 -7.7150684931507 -33.571068493151 -18.144438356164 -46.714739726027 -31.288109589041c-13.143671232877 -13.140164383562 -23.569534246575 -28.710575342466 -31.284602739726 -46.711232876712 c-7.7150684931507 -18.000657534247 -11.572602739726 -36.906082191781 -11.572602739726 -56.716273972603v-201.13884931507c0 -15.244273972603 5.3304109589041 -28.191561643836 15.998246575342 -38.859397260274c10.667835616438 -10.664328767123 23.622136986301 -15.998246575342 38.859397260274 -15.998246575342h109.71879452055 c15.237260273973 0 28.188054794521 5.3339178082192 38.855890410959 15.998246575342c10.664328767123 10.667835616438 15.998246575342 23.615123287671 15.998246575342 38.859397260274V155.42706849315c0 15.240767123288 -5.3339178082192 28.188054794521 -16.005260273973 38.859397260274 C333.78542465753 204.95079452055 320.83112328767 210.28471232877 305.5938630137 210.28471232877zM600.4602739726 194.28646575342c-10.664328767123 10.664328767123 -23.615123287671 15.998246575342 -38.855890410959 15.998246575342h-64c-7.6168767123288 0 -14.097534246575 2.6652054794521 -19.424438356164 7.9991232876712 c-5.3339178082192 5.3339178082192 -7.9991232876712 11.811068493151 -7.9991232876712 19.431452054795v9.1388493150685c0 20.192438356164 7.1434520547945 37.428602739726 21.423342465753 51.715506849315c14.283397260274 14.283397260274 31.523068493151 21.426849315068 51.71901369863 21.426849315068h18.281205479452 c4.9516712328767 0 9.2405479452055 1.8095342465753 12.856109589041 5.428602739726c3.6190684931507 3.6190684931507 5.4321095890411 7.9044383561644 5.4321095890411 12.856109589041V374.8541369863c0 4.9516712328767 -1.8130410958904 9.2405479452055 -5.4321095890411 12.859616438356 c-3.6155616438356 3.6155616438356 -7.9044383561644 5.428602739726 -12.856109589041 5.428602739726h-18.281205479452c-19.820712328767 0 -38.719123287671 -3.8610410958904 -56.723287671233 -11.572602739726c-17.997150684932 -7.7150684931507 -33.564054794521 -18.144438356164 -46.707726027397 -31.288109589041 c-13.143671232877 -13.140164383562 -23.57304109589 -28.710575342466 -31.288109589041 -46.711232876712c-7.7115616438356 -18.000657534247 -11.572602739726 -36.906082191781 -11.572602739726 -56.716273972603v-201.13884931507c0 -15.244273972603 5.3339178082192 -28.191561643836 15.998246575342 -38.859397260274 c10.664328767123 -10.664328767123 23.615123287671 -15.998246575342 38.855890410959 -15.998246575342h109.71178082192c15.244273972603 0 28.191561643836 5.3339178082192 38.855890410959 15.998246575342c10.671342465753 10.667835616438 15.998246575342 23.615123287671 15.998246575342 38.859397260274V155.42706849315 C616.45150684932 170.66783561644 611.12460273973 183.61512328767 600.4602739726 194.28646575342z"/><glyph unicode="&#xE013;" glyph-name="right28" horiz-adv-x="757" d="M305.60087671233 393.13884931507H195.8855890411c-15.240767123288 0 -28.191561643836 -5.3339178082192 -38.859397260274 -15.998246575342c-10.664328767123 -10.667835616438 -15.998246575342 -23.618630136986 -15.998246575342 -38.859397260274v-109.71178082192 c0 -15.240767123288 5.3304109589041 -28.191561643836 15.998246575342 -38.855890410959s23.622136986301 -15.998246575342 38.859397260274 -15.998246575342h64c7.6168767123288 0 14.09402739726 -2.6687123287671 19.427945205479 -7.9991232876712s7.9991232876712 -11.811068493151 7.9991232876712 -19.431452054795v-9.1388493150685 c0 -20.192438356164 -7.1434520547945 -37.425095890411 -21.426849315068 -51.712c-14.286904109589 -14.283397260274 -31.523068493151 -21.426849315068 -51.715506849315 -21.426849315068h-18.284712328767c-4.9551780821918 0 -9.2405479452055 -1.8130410958904 -12.859616438356 -5.428602739726 c-3.6190684931507 -3.6190684931507 -5.428602739726 -7.9044383561644 -5.428602739726 -12.856109589041v-36.576438356164c0 -4.9481643835616 1.8095342465753 -9.2405479452055 5.428602739726 -12.856109589041c3.6225753424658 -3.6155616438356 7.9044383561644 -5.4321095890411 12.859616438356 -5.4321095890411h18.284712328767 c19.810191780822 0 38.715616438356 3.8645479452055 56.716273972603 11.576109589041c18.000657534247 7.7115616438356 33.571068493151 18.144438356164 46.714739726027 31.288109589041c13.140164383562 13.140164383562 23.569534246575 28.710575342466 31.284602739726 46.711232876712 c7.7115616438356 18.000657534247 11.569095890411 36.902575342466 11.569095890411 56.712767123288V338.28471232877c0 15.240767123288 -5.3339178082192 28.191561643836 -15.998246575342 38.855890410959S320.8381369863 393.13884931507 305.60087671233 393.13884931507zM600.45326027397 377.14060273973c-10.664328767123 10.664328767123 -23.615123287671 15.998246575342 -38.855890410959 15.998246575342h-109.71178082192c-15.240767123288 0 -28.191561643836 -5.3339178082192 -38.855890410959 -15.998246575342 c-10.664328767123 -10.667835616438 -15.998246575342 -23.618630136986 -15.998246575342 -38.859397260274v-109.71178082192c0 -15.240767123288 5.3339178082192 -28.191561643836 15.998246575342 -38.855890410959s23.615123287671 -15.998246575342 38.855890410959 -15.998246575342h64 c7.6168767123288 0 14.097534246575 -2.6687123287671 19.431452054795 -7.9991232876712c5.326904109589 -5.3339178082192 7.9991232876712 -11.811068493151 7.9991232876712 -19.431452054795v-9.1388493150685c0 -20.192438356164 -7.1434520547945 -37.425095890411 -21.430356164384 -51.712 c-14.286904109589 -14.283397260274 -31.519561643836 -21.426849315068 -51.712 -21.426849315068h-18.288219178082c-4.9516712328767 0 -9.2405479452055 -1.8130410958904 -12.856109589041 -5.428602739726c-3.6225753424658 -3.6190684931507 -5.4321095890411 -7.9044383561644 -5.4321095890411 -12.856109589041v-36.576438356164 c0 -4.9481643835616 1.8095342465753 -9.2405479452055 5.4321095890411 -12.856109589041c3.6155616438356 -3.6155616438356 7.9044383561644 -5.4321095890411 12.856109589041 -5.4321095890411h18.288219178082c19.806684931507 0 38.712109589041 3.8645479452055 56.712767123288 11.576109589041 c17.997150684932 7.7115616438356 33.567561643836 18.144438356164 46.711232876712 31.288109589041c13.143671232877 13.140164383562 23.576547945205 28.714082191781 31.288109589041 46.711232876712s11.569095890411 36.902575342466 11.569095890411 56.712767123288V338.28471232877 C616.45150684932 353.52547945205 611.12460273973 366.4762739726 600.45326027397 377.14060273973z"/><glyph unicode="&#xE014;" glyph-name="search4" horiz-adv-x="512" d="M497.056 18.816l-112.48 112.48c19.584 31.712 31.424 68.704 31.424 108.704 0 114.88 -93.12 208 -208 208s-208 -93.12 -208 -208 93.12 -208 208 -208c40 0 76.992 11.84 108.672 31.392l112.512 -112.48c18.752 -18.752 49.12 -18.752 67.872 0s18.752 49.152 0 67.904zm-289.056 77.184c-79.52 0 -144 64.48 -144 144s64.48 144 144 144 144 -64.48 144 -144 -64.48 -144 -144 -144z"/><glyph unicode="&#xE015;" glyph-name="social19" horiz-adv-x="512" d="M512.032 350.784c-18.848 -8.352 -39.072 -14.016 -60.32 -16.544c21.696 12.992 38.304 33.6 46.176 58.08 c-20.32 -12.032 -42.816 -20.768 -66.752 -25.504C412 387.264 384.704 400 354.496 400c-58.016 0 -105.056 -47.04 -105.056 -105.024 c0 -8.224 0.928 -16.256 2.72 -23.936C164.864 275.424 87.456 317.248 35.648 380.8C26.592 365.312 21.44 347.264 21.44 328 c0 -36.448 18.56 -68.608 46.72 -87.424C50.944 241.152 34.752 245.888 20.576 253.76v-1.312c0 -50.88 36.224 -93.344 84.256 -103.008 C96.032 147.072 86.752 145.76 77.152 145.76c-6.784 0 -13.344 0.672 -19.776 1.92c13.376 -41.728 52.16 -72.096 98.112 -72.96 c-35.936 -28.16 -81.248 -44.928 -130.464 -44.928c-8.48 0 -16.832 0.512 -25.056 1.44C46.464 1.408 101.664 -16 160.992 -16 c193.216 0 298.88 160.064 298.88 298.88L459.52 296.48C480.128 311.232 497.984 329.728 512.032 350.784z"/><glyph unicode="&#xE016;" glyph-name="social40" horiz-adv-x="502" d="M443.7500612595 308.4577309483c-13.675079637344 99.175692232296 -112.5371232541 149.6731193335 -217.98578779711 137.84856652781C142.39647145308 436.95956873315 59.279588336192 369.55648125459 55.829453565303 273.17226170056C53.728007841215 214.33178142612 70.414114187699 170.17005635874 126.40039206077 157.78093604509 c24.245037980887 42.907130605244 -7.8098505268317 52.285224209753 -12.828228375398 83.367802009311c-20.543984317569 127.02768929184 146.53663317814 213.78289634893 234.04459691252 125.02033815241c60.565547659887 -61.47512864494 20.669443763783 -250.47978436658 -76.938005390836 -230.81401617251 c-93.498652291105 18.756187209017 45.79269786817 169.21342808135 -28.824307767704 198.72776280323C181.19480519481 358.10830678755 148.98309237932 260.68904680225 177.74467042392 212.26170056359C160.87037490811 128.98799313894 124.54986522911 50.575839255085 139.25998529772 -53.837784856653 c47.674589561382 34.595442293555 63.764763538348 100.83802989463 76.938005390836 169.93481989708c23.962754226905 -14.584660622396 36.790982602303 -29.702523891203 67.340357755452 -32.054888507719C396.23229600588 75.322715020828 459.21293800539 196.54790492526 443.7500612595 308.4577309483z"/><glyph unicode="&#xE017;" glyph-name="tumblr8" horiz-adv-x="512" d="M288.016 224v-117.092c0 -29.709 -0.386 -46.828 2.764 -55.25c3.125 -8.377 10.96 -17.073 19.496 -22.102 c11.342 -6.794 24.271 -10.188 38.854 -10.188c25.927 0 41.239 3.424 66.871 20.27v-76.972l0 0 c-21.85 -10.276 -40.933 -16.297 -58.662 -20.461c-17.75 -4.121 -36.93 -6.203 -57.531 -6.203c-23.414 0 -37.229 2.943 -55.206 8.828 c-17.979 5.934 -33.33 14.403 -46.01 25.27c-12.725 10.962 -21.511 22.604 -26.424 34.916c-4.913 12.318 -7.358 30.207 -7.358 53.622 v179.55H96.096v72.503c20.104 6.521 42.582 15.894 56.89 28.076c14.377 12.225 25.883 26.853 34.553 43.972 c8.696 17.073 14.674 38.856 17.936 65.258h82.542L288.016 320H416v-96H288.016z"/><glyph unicode="&#xE018;" glyph-name="youtube3" horiz-adv-x="459" d="M459.37589403974 152.95237086093v-150.92810596026c0 -9.4397880794702 -1.9801854304636 -18.038675496689 -5.9948079470199 -25.932291390728c-3.9874966887417 -7.9478675496689 -9.4397880794702 -14.892079470199 -16.356874172185 -20.859761589404 c-6.8899602649007 -5.9948079470199 -14.83782781457 -10.633324503311 -23.870728476821 -14.078304635762c-9.0871523178808 -3.4178543046358 -18.852450331126 -5.1539072847682 -29.377271523179 -5.1539072847682H75.27417218543c-10.280688741722 0 -19.964609271523 1.7360529801325 -29.024635761589 5.1539072847682 c-9.0600264900662 3.4449801324503 -17.03501986755 8.0834966887417 -23.897854304636 14.078304635762c-6.8357086092715 5.9676821192053 -12.342251655629 12.911894039735 -16.384 20.859761589404C1.9801854304636 -16.014410596027 0 -7.415523178808 0 2.0242649006623v150.92810596026 c0 8.9515231788079 1.9801854304636 17.496158940397 5.9948079470199 25.606781456954c4.0146225165563 8.1377483443709 9.5482913907285 15.163337748344 16.384 20.968264900662c6.8628344370861 5.8320529801324 14.83782781457 10.579072847682 23.897854304636 14.105430463576s18.743947019868 5.3166622516556 29.024635761589 5.3166622516556 h308.5020397351c10.280688741722 0 19.991735099338 -1.7903046357616 29.187390728477 -5.3166622516556c9.1685298013245 -3.526357615894 17.170649006623 -8.2733774834437 24.060609271523 -14.105430463576c6.9170860927152 -5.8320529801324 12.342251655629 -12.857642384106 16.356874172185 -20.968264900662 S459.37589403974 161.90389403974 459.37589403974 152.95237086093zM95.944052980132 -14.820874172185v159.20148344371h37.840529801325v24.060609271523H31.628715231788v-23.382463576159h32.740874172185v-159.87962913907H95.944052980132zM111.37864900662 355.52805298013L69.089483443709 448h36.809748344371 L126.94887417219 378.88339072848L147.91713907285 448h36.755496688742l-39.603708609272 -92.471947019868v-107.68953642384H111.37864900662V355.52805298013zM210.79480794702 120.99814569536H179.19321854305v-84.985218543046c0 -6.1575629139073 0.054251655629139 -10.931708609272 0.29838410596026 -14.213933774834 c0.21700662251656 -3.3636026490066 -0.24413245033113 -5.479417218543 -1.383417218543 -6.3745695364238c-0.94940397350993 -3.6619867549669 -3.6077350993377 -6.3474437086093 -8.1377483443709 -8.0834966887417c-4.3672582781457 -1.6818013245033 -7.7579867549669 0.70527152317881 -10.117933774834 7.4053509933775 c-0.48826490066225 0.89515231788079 -0.54251655629139 3.1465960264901 -0.29838410596026 6.6729536423841c0.21700662251656 3.5806092715232 0.29838410596026 8.2191258278146 0.29838410596026 13.969801324503l-0.65101986754967 85.609112582781H127.57276821192l0.73239735099338 -84.279947019868 c0 -6.618701986755 -0.16275496688742 -12.152370860927 -0.37976158940397 -16.628132450331s-0.16275496688742 -7.8393642384106 0.37976158940397 -10.145059602649c0.43401324503311 -3.716238410596 0.84090066225166 -7.622357615894 1.3291655629139 -11.881112582781 c0.43401324503311 -4.2045033112583 2.6040794701987 -7.622357615894 6.5644503311258 -10.145059602649c3.6619867549669 -2.2785695364238 7.9478675496689 -3.4721059602649 12.830516556291 -3.4721059602649c4.9911523178808 0 9.8195496688742 0.84090066225166 14.48519205298 2.4684503311258 c4.7470198675497 1.6275496688742 9.0329006622517 3.8247417218543 13.047523178808 6.6458278145695c3.9874966887417 2.8482119205298 6.9442119205298 5.9405562913907 8.7345165562914 9.1414039735099l-0.6238940397351 -16.818013245033l26.12217218543 -0.67814569536424V120.99814569536zM181.87867549669 341.39549668874 c0 12.613509933775 1.2206622516556 23.084079470199 3.4449801324503 31.248953642384C188.14474172185 381.1619602649 192.56625165563 387.23814569536 198.77806622517 390.92725827815c6.2118145695364 4.5842649006623 14.105430463576 6.8899602649007 23.735099337748 6.8899602649007 c8.4632582781457 0 15.515973509934 -1.4105430463576 21.320900662252 -4.1231258278146c5.6964238410596 -2.3056953642384 10.416317880795 -6.2931920529801 14.078304635762 -12.043867549669C260.67920529801 377.47284768212 262.76789403974 372.83433112583 264.12418543046 367.51766887417 c1.3020397350993 -5.7235496688742 2.0344370860927 -13.400158940397 2.0344370860927 -23.056953642384v-36.050225165563c0 -13.101774834437 -0.73239735099338 -22.487311258278 -2.0344370860927 -28.265112582781C263.58166887417 274.91009271523 261.35735099338 269.05091390728 257.17997350993 262.62209271523 c-4.096 -5.6964238410596 -8.5446357615894 -9.4940397350993 -13.345907284768 -11.33859602649C238.02913907285 248.51666225166 231.57319205298 247.18749668874 224.19496688742 247.18749668874c-7.4867284768212 0 -14.458066225166 1.1392847682119 -20.588503311258 3.4449801324503 c-5.7778013245033 1.8174304635762 -10.036556291391 5.1539072847682 -12.722013245033 9.9280529801325C188.14474172185 264.30389403974 185.8119205298 269.40354966887 183.9402384106 276.07650331126C182.61107284768 282.31544370861 181.87867549669 291.61960264901 181.87867549669 304.2602384106V341.39549668874zM210.08953642384 285.35353642384 c0 -3.6619867549669 1.383417218543 -6.9442119205298 4.1502516556291 -9.8195496688742c2.712582781457 -2.8210860927152 6.0761854304636 -4.2587549668874 9.9280529801325 -4.2587549668874c3.6348609271523 0 6.9442119205298 1.3562913907285 9.8195496688742 4.1231258278146 c2.8753377483444 2.712582781457 4.2587549668874 6.0761854304636 4.2587549668874 9.955178807947V359.97668874172c0 4.1231258278146 -1.383417218543 7.5681059602649 -4.2587549668874 10.443443708609C231.13917880795 373.29547019868 227.80270198675 374.76026490066 224.19496688742 374.76026490066 c-3.6619867549669 0 -6.9442119205298 -1.4647947019868 -9.765298013245 -4.3401324503311C211.55433112583 367.54479470199 210.08953642384 364.09981456954 210.08953642384 359.97668874172V285.35353642384zM312.89642384106 24.023311258278v70.500026490066c0 13.508662251656 -4.7741456953642 23.165456953642 -14.376688741722 28.861880794702 c-3.2008476821192 1.8174304635762 -6.9442119205298 2.7668344370861 -11.04021192053 2.7668344370861c-7.5952317880795 0 -16.275496688742 -3.5534834437086 -26.12217218543 -10.660450331126v52.94961589404H229.72863576159v-181.9058013245l26.149298013245 0.67814569536424l2.0344370860927 11.33859602649 c8.4903841059603 -7.1340927152318 16.166993377483 -11.474225165563 22.867072847682 -13.074649006623c6.808582781457 -1.573298013245 12.477880794702 -0.94940397350993 17.197774834437 1.9259337748344c4.7198940397351 2.8210860927152 8.381880794702 7.5138543046358 10.985960264901 14.105430463576 C311.56725827815 8.0190728476821 312.89642384106 15.587178807947 312.89642384106 24.023311258278zM274.78463576159 108.60164238411c3.6619867549669 0 6.8628344370861 -1.0850331125828 9.765298013245 -3.2822251655629c2.8482119205298 -2.1700662251656 4.285880794702 -4.6385165562914 4.285880794702 -7.3510993377483v-79.804185430464 c0 -2.7397086092715 -1.4376688741722 -5.0996556291391 -4.285880794702 -7.1883443708609c-2.9024635761589 -2.0615629139073 -6.1304370860927 -3.1194701986755 -9.765298013245 -3.1194701986755c-3.716238410596 0 -6.9442119205298 1.0579072847682 -9.8738013245033 3.1194701986755 c-2.8210860927152 2.0615629139073 -4.2045033112583 4.4486357615894 -4.2045033112583 7.1883443708609v79.804185430464c0 2.7397086092715 1.4105430463576 5.1810331125828 4.2045033112583 7.3510993377483C267.84042384106 107.51660927152 271.06839735099 108.60164238411 274.78463576159 108.60164238411zM289.5139602649 261.94394701987c-0.81377483443709 1.8445562913907 -1.4647947019868 3.7976158940397 -1.6818013245033 5.6964238410596c-0.2712582781457 1.9259337748344 -0.56964238410596 3.8518675496689 -1.0850331125828 5.669298013245c-0.43401324503311 2.3056953642384 -0.65101986754967 5.3980397350993 -0.65101986754967 9.3312847682119V297.72291390728 V392.25642384106h29.567152317881v-109.31708609272c0 -2.7939602649007 1.0036556291391 -5.1267814569536 3.0652185430464 -7.2425960264901c2.142940397351 -2.0344370860927 4.8283973509934 -3.0923443708609 8.2733774834437 -3.0923443708609c3.2279735099338 0 5.9676821192053 1.0579072847682 8.2462516556291 3.0923443708609 c2.332821192053 2.0886887417219 3.526357615894 4.4486357615894 3.526357615894 7.2425960264901v109.31708609272h27.42421192053v-140.29478145695h-34.992317880795l0.6238940397351 11.33859602649c-3.2279735099338 -4.5571390728477 -6.2660662251656 -8.1377483443709 -9.2770331125828 -10.633324503311 c-3.6619867549669 -2.2785695364238 -7.6494834437086 -3.4449801324503 -12.043867549669 -3.4449801324503c-5.2352847682119 0 -9.6296688741722 1.1664105960265 -13.074649006623 3.4449801324503C294.42373509934 254.70135099338 291.79252980132 257.82082119205 289.5139602649 261.94394701987zM412.61096688742 32.920582781457 h-23.680847682119v-3.4178543046358v-12.016741721854c0 -3.6891125827815 -1.3291655629139 -6.5101986754967 -3.9603708609272 -8.571761589404c-2.6312052980132 -2.0886887417219 -5.7778013245033 -3.0652185430464 -9.4126622516556 -3.0652185430464h-4.9097748344371c-3.6348609271523 0 -6.618701986755 0.9765298013245 -9.0600264900662 3.0652185430464 c-2.4141986754967 2.0615629139073 -3.6619867549669 4.9097748344371 -3.6619867549669 8.571761589404v1.3562913907285v13.427284768212v17.903046357616h54.685668874172v18.906701986755c0 7.0798410596026 -0.10850331125828 13.915549668874 -0.3526357615894 20.425748344371 c-0.21700662251656 6.5644503311258 -0.75952317880795 11.664105960265 -1.6818013245033 15.271841059603C409.65425165563 111.0158410596 406.88741721854 116.00699337748 402.11327152318 119.77748344371c-4.665642384106 3.7704900662252 -10.145059602649 6.3474437086093 -16.465377483444 7.7037350993377 c-6.2931920529801 1.4376688741722 -12.722013245033 1.6546754966887 -19.286463576159 0.70527152317881c-6.5101986754967 -0.92227814569536 -12.125245033113 -3.0652185430464 -17.03501986755 -6.5101986754967c-6.1304370860927 -4.1231258278146 -10.579072847682 -9.765298013245 -13.373033112583 -16.899390728477 c-2.7668344370861 -7.0527152317881 -4.1231258278146 -16.926516556291 -4.1231258278146 -29.567152317881v-42.316291390728c0 -17.821668874172 4.7470198675497 -30.597933774834 14.132556291391 -38.138913907285c8.6802649006623 -7.0798410596026 17.821668874172 -10.660450331126 27.451337748344 -10.660450331126 c0.94940397350993 0 1.8445562913907 0 2.8210860927152 0c10.796079470199 0.65101986754967 20.290119205298 5.2624105960265 28.563496688742 13.752794701987c6.1846887417219 6.1846887417219 9.2770331125828 14.349562913907 9.2770331125828 24.386119205298 C413.72312582781 25.488105960265 413.34336423841 29.068715231788 412.61096688742 32.920582781457zM388.1977218543 73.229562913907h-30.245298013245l0.67814569536424 16.790887417219c0 3.6891125827815 1.383417218543 6.6729536423841 4.1231258278146 9.1414039735099 c2.7668344370861 2.4141986754967 6.049059602649 3.6348609271523 10.009430463576 3.6348609271523h1.383417218543c4.0688741721854 0 7.5681059602649 -1.1664105960265 10.470569536424 -3.4449801324503c2.8210860927152 -2.3056953642384 4.3130066225166 -5.3980397350993 4.3130066225166 -9.3312847682119L388.1977218543 73.229562913907z"/></font></defs></svg>
